# A tibble: 180 × 4
     GDP    PR    M1    RS
   <dbl> <dbl> <dbl> <dbl>
 1  87.9 0.198  127. 1.64 
 2  88.1 0.198  128. 1.68 
 3  89.6 0.200  129. 1.83 
 4  92.9 0.201  129. 1.92 
 5  94.6 0.201  131. 2.05 
 6  95.6 0.201  130. 2.20 
 7  95.4 0.202  131. 2.02 
 8  94.2 0.203  130. 1.49 
 9  94.1 0.203  130. 1.08 
10  94.2 0.204  131. 0.814
# ℹ 170 more rows
# ℹ Use `print(n = ...)` to see more rows
